{
  "id": "09bae75d-945a-47a1-a8ed-18ed6e4f8388",
  "name": "sophie-http-example",
  "values": [
    {
      "enabled": true,
      "key": "url",
      "value": "https://b76055b0-5fff-4eb6-ae7d-5a2a6a1b6042.mock.pstmn.io",
      "type": "text"
    }
  ],
  "_postman_variable_scope": "environment",
  "_postman_exported_at": "2018-06-11T22:40:59.946Z",
  "_postman_exported_using": "Postman/6.1.3"
}